3 2 2 3 4 5 6 7 8 9 4 5 12 13 13 15 15 
1 1 2 2 4 15 6 7 7 12 10 16 12 13 14 15 16 
10 1 2 4 4 13 6 7 6 12 10 14 12 13 14 15 16 
0 1 2 3 4 5 6 7 8 9 10 11 7 4 10 2 1 
0 1 2 3 4 3 6 7 8 8 10 11 7 4 14 2 16 
0 1 7 8 6 9 6 7 8 9 10 11 12 12 14 12 16 
0 1 2 3 4 5 4 2 3 5 10 11 15 13 14 15 16 
0 0 3 3 5 5 9 8 8 9 11 11 9 5 11 5 11 
0 0 3 3 3 5 8 8 8 9 0 11 9 5 11 5 11 
