1 0 3 2 0 3 8 12 6 8 12 14 7 14 11 16 17 16 
3 2 1 0 5 4 7 11 12 10 13 7 14 10 12 10 12 7 
8 6 1 0 9 4 7 17 12 10 15 7 16 10 12 10 12 7 
0 1 2 3 4 5 6 7 8 9 10 2 12 5 3 9 8 6 
0 1 2 3 4 5 6 1 8 9 4 2 12 5 14 9 16 6 
0 4 5 3 4 5 9 10 8 9 10 13 12 13 14 15 16 15 
0 1 2 3 1 2 6 7 8 6 7 11 12 11 14 17 16 17 
0 1 1 0 4 4 7 7 12 10 10 7 12 10 12 10 12 7 
0 1 1 0 4 4 1 7 0 4 10 7 12 10 12 10 12 7 
