1 1 2 3 
0 1 2 2 
0 1 2 3 
0 1 2 3 
0 1 2 3 
0 1 2 3 
0 1 2 3 
0 1 2 3 
0 1 2 3 
1 1 2 3 
0 1 2 2 
0 1 2 3 
0 1 2 3 
0 1 2 3 
0 1 2 3 
0 1 2 3 
0 1 2 3 
0 1 2 3 
1 1 2 3 
0 1 2 2 
0 1 2 3 
0 1 2 3 
0 1 2 3 
0 1 2 3 
0 1 2 3 
0 1 2 3 
0 1 2 3 
1 1 2 3 
0 1 2 2 
0 1 2 3 
0 1 2 3 
0 1 2 3 
0 1 2 3 
0 1 2 3 
0 1 2 3 
0 1 2 3 
1 1 2 3 
0 1 2 2 
0 1 2 3 
0 1 2 3 
0 1 2 3 
0 1 2 3 
0 1 2 3 
0 1 2 3 
0 1 2 3 
1 1 2 3 
0 1 2 2 
0 1 2 3 
0 1 2 3 
0 1 2 3 
0 1 2 3 
0 1 2 3 
0 1 2 3 
0 1 2 3 
1 1 2 3 
0 1 2 2 
0 1 2 3 
0 1 2 3 
0 1 2 3 
0 1 2 3 
0 1 2 3 
0 1 2 3 
0 1 2 3 
1 1 2 3 
0 1 2 2 
0 1 2 3 
0 1 2 3 
0 1 2 3 
0 1 2 3 
0 1 2 3 
0 1 2 3 
0 1 2 3 
1 1 2 3 
0 1 2 2 
0 1 2 3 
0 1 2 3 
0 1 2 3 
0 1 2 3 
0 1 2 3 
0 1 2 3 
0 1 2 3 
0 3 0 3 
