0 1 6 19 7 29 6 7 0 0 6 49 13 13 44 7 29 0 20 19 20 22 22 23 24 50 48 27 22 29 1 4 3 1 3 1 36 37 29 37 6 42 42 43 44 45 46 47 48 49 50 24 23 24 48 55 48 57 
0 1 2 3 4 5 6 7 0 0 6 11 12 13 44 7 29 0 18 19 20 21 22 23 24 25 26 27 22 29 1 4 3 1 3 1 36 37 29 37 6 42 42 43 44 45 46 47 48 49 50 24 23 24 48 55 56 57 
0 1 2 3 4 5 6 7 0 0 6 11 12 13 44 7 29 0 18 19 20 21 22 23 24 25 26 27 22 29 1 4 3 1 3 1 36 37 29 37 6 42 42 43 44 45 46 47 48 49 50 24 23 24 48 55 56 57 
0 1 2 3 4 5 6 7 0 0 6 11 12 13 44 7 29 0 18 19 20 21 22 23 24 25 26 27 22 29 1 4 3 1 3 1 36 37 29 37 6 42 42 43 44 45 46 47 48 49 50 24 23 24 48 55 56 57 
0 1 2 3 4 5 6 7 8 9 10 11 12 13 14 15 16 17 18 19 20 21 22 23 24 25 26 27 28 29 30 31 32 33 34 35 36 37 38 39 40 41 42 43 44 45 46 47 48 49 50 51 52 53 54 55 56 57 
0 1 2 3 4 5 6 7 8 9 10 11 12 13 14 15 16 17 18 19 20 21 22 23 24 25 26 27 28 29 30 31 32 33 34 35 36 37 38 39 40 41 42 43 44 45 46 47 48 49 50 51 52 53 54 55 56 57 
0 1 2 3 4 5 6 7 8 9 10 11 12 13 14 15 16 17 18 19 20 21 22 23 24 25 26 27 28 29 30 31 32 33 34 35 36 37 38 39 40 41 42 43 44 45 46 47 48 49 50 51 52 53 54 55 56 57 
0 1 2 3 4 5 6 7 8 9 10 11 12 13 14 15 16 17 18 19 20 21 22 23 24 25 26 27 28 29 30 31 32 33 34 35 36 37 38 39 40 41 42 43 44 45 46 47 48 49 50 51 52 53 54 55 56 57 
0 0 2 3 4 2 6 7 8 9 10 11 12 13 28 15 40 17 18 19 20 21 22 4 3 21 18 13 28 6 8 31 32 9 34 17 36 37 10 39 40 15 7 43 22 45 20 19 37 49 36 32 31 34 39 49 12 11 
1 1 5 24 23 5 29 42 30 33 38 57 56 27 14 41 16 35 26 47 46 25 44 23 24 25 26 27 14 29 30 52 51 33 53 35 50 48 38 54 16 41 42 42 44 44 46 47 48 55 50 51 52 53 54 55 56 57 
0 1 2 3 4 5 6 7 8 9 10 11 12 13 14 15 16 17 18 19 20 21 22 23 24 25 26 27 28 29 30 31 32 33 34 35 36 37 38 39 40 41 42 43 44 45 46 47 48 49 50 51 52 53 54 55 56 57 
0 1 2 3 4 5 6 7 8 9 10 11 12 13 14 15 16 17 18 19 20 21 22 23 24 25 26 27 28 29 30 31 32 33 34 35 36 37 38 39 40 41 42 43 44 45 46 47 48 49 50 51 52 53 54 55 56 57 
0 1 2 3 4 5 6 7 8 9 10 11 12 13 14 15 16 17 18 19 20 21 22 23 24 25 26 27 28 29 30 31 32 33 34 35 36 37 38 39 40 41 42 43 44 45 46 47 48 49 50 51 52 53 54 55 56 57 
0 1 2 3 4 5 6 7 8 9 10 11 12 13 14 15 16 17 18 19 20 21 22 23 24 25 26 27 28 29 30 31 32 33 34 35 36 37 38 39 40 41 42 43 44 45 46 47 48 49 50 51 52 53 54 55 56 57 
0 1 0 3 4 1 8 7 8 9 9 11 11 49 41 15 35 17 3 19 19 4 7 23 24 23 24 55 15 30 30 31 32 33 34 35 31 32 33 34 17 41 42 43 42 43 47 47 51 49 52 51 52 53 53 55 57 57 
2 5 2 18 21 5 6 22 6 10 10 12 12 13 14 28 16 40 18 20 20 21 22 25 26 25 26 27 28 29 29 36 37 38 39 16 36 37 38 39 40 14 44 45 44 45 46 46 48 13 50 48 50 54 54 27 56 56 
0 1 2 0 4 5 6 7 8 9 10 4 21 28 14 15 16 17 2 17 40 21 22 23 1 25 5 14 28 29 30 31 8 33 9 35 36 6 38 10 40 41 42 7 44 22 16 35 29 15 50 30 52 33 38 41 25 23 
3 24 18 3 11 26 37 43 32 34 39 11 12 13 27 49 46 19 18 19 20 12 45 57 24 56 26 27 13 48 51 32 32 53 34 47 37 37 54 39 20 55 42 43 44 45 46 47 48 49 48 51 51 53 54 55 56 57 
0 1 2 3 4 5 6 7 8 9 10 11 12 13 14 15 16 17 18 19 20 21 22 23 24 25 26 27 28 29 30 31 32 33 34 35 36 37 38 39 40 41 42 43 44 45 46 47 48 49 50 51 52 53 54 55 56 57 
0 1 2 3 4 5 6 7 8 9 10 11 12 13 14 15 16 17 18 19 20 21 22 23 24 25 26 27 28 29 30 31 32 33 34 35 36 37 38 39 40 41 42 43 44 45 46 47 48 49 50 51 52 53 54 55 56 57 
0 1 2 3 0 5 6 9 8 9 10 3 18 20 16 17 16 17 18 19 20 2 10 1 24 5 26 46 40 29 30 8 32 33 34 35 6 37 38 39 40 35 33 34 38 39 46 47 48 19 29 51 30 53 54 47 26 24 
4 23 21 11 4 25 36 7 31 7 22 11 12 13 14 15 14 15 12 49 13 21 22 23 57 25 56 27 28 50 52 31 32 42 43 41 36 37 44 45 28 41 42 43 44 45 27 55 48 49 50 51 52 42 44 55 56 57 
